PatcherDemo/Binaries/Win64/PatcherDemoServer.exe	2021-12-13T00:56:34.000Z
PatcherDemo/Binaries/Win64/OpenImageDenoise.dll	2021-11-22T06:02:58.000Z
PatcherDemo/Binaries/Win64/tbb12.dll	2021-11-22T06:03:54.000Z
Engine/Extras/Redist/en-us/UE4PrereqSetup_x64.exe	2021-11-22T06:15:14.326Z
Engine/Binaries/ThirdParty/Oculus/OVRPlugin/OVRPlugin/Win64/OVRPlugin.dll	2021-11-22T06:11:13.954Z
Engine/Binaries/ThirdParty/DbgHelp/dbghelp.dll	2021-11-22T06:06:49.170Z
Engine/Binaries/ThirdParty/PhysX3/Win64/VS2015/PxFoundationPROFILE_x64.dll	2021-11-22T06:07:53.315Z
Engine/Binaries/ThirdParty/PhysX3/Win64/VS2015/PxPvdSDKPROFILE_x64.dll	2021-11-22T06:14:42.448Z
Engine/Binaries/ThirdParty/PhysX3/Win64/VS2015/PhysX3PROFILE_x64.dll	2021-11-22T06:06:40.444Z
Engine/Binaries/ThirdParty/PhysX3/Win64/VS2015/PhysX3CookingPROFILE_x64.dll	2021-11-22T06:06:41.615Z
Engine/Binaries/ThirdParty/PhysX3/Win64/VS2015/PhysX3CommonPROFILE_x64.dll	2021-11-22T06:04:51.715Z
Engine/Binaries/ThirdParty/PhysX3/Win64/VS2015/APEX_ClothingPROFILE_x64.dll	2021-11-22T06:15:22.724Z
Engine/Binaries/ThirdParty/PhysX3/Win64/VS2015/APEX_LegacyPROFILE_x64.dll	2021-11-22T06:11:28.924Z
Engine/Binaries/ThirdParty/PhysX3/Win64/VS2015/ApexFrameworkPROFILE_x64.dll	2021-11-22T06:06:10.612Z
Engine/Binaries/ThirdParty/PhysX3/Win64/VS2015/NvClothPROFILE_x64.dll	2021-11-22T06:06:41.504Z
Engine/Binaries/ThirdParty/Ogg/Win64/VS2015/libogg_64.dll	2021-11-22T06:04:49.970Z
Engine/Binaries/ThirdParty/Vorbis/Win64/VS2015/libvorbis_64.dll	2021-11-22T06:12:23.266Z
Engine/Binaries/ThirdParty/Vorbis/Win64/VS2015/libvorbisfile_64.dll	2021-11-22T06:04:50.464Z
Engine/Binaries/ThirdParty/NVIDIA/NVaftermath/Win64/GFSDK_Aftermath_Lib.x64.dll	2021-11-22T06:05:49.791Z
Engine/Binaries/ThirdParty/OpenXR/win64/openxr_loader.dll	2021-11-22T06:15:05.012Z
Engine/Binaries/ThirdParty/OpenVR/OpenVRv1_5_17/Win64/openvr_api.dll	2021-11-22T06:03:04.148Z
Engine/Binaries/ThirdParty/Windows/WinPixEventRuntime/x64/WinPixEventRuntime.dll	2021-11-22T06:01:25.136Z
PatcherDemoServer.exe	2021-12-13T01:00:18.000Z
